Chapter 28 Power analysis | Core Statistics in R
…
This time we want to see what the effect size is so we look at the second line and we can see that an experiment with this many people would only be expected to detect a difference in means of d = 0.74 standard deviations. Is this good or bad? Well, it depends on the natural variation of your data; if your data is really noisy then it will have a large variation and a large standard deviation which will mean that 0.74 standard deviations might actually be quite a big difference between your groups. If on the other hand your data doesn’t vary very much, then 0.74 standard deviations might actually be a really small number and this test could pick up even quite small differences in mean.

In both of the previous two examples we were a little bit context-free in terms of effect size. Let’s look at how we can use a pilot study with real data to calculate effect sizes and perform a power analysis to inform a future study.

Let’s look again at the fishlength data we saw in the first practical relating to the lengths of fish from two separate rivers. This is saved as data/tidy/CS6-fishlength.csv.

# read in the data
fishlength <- read_csv("data/tidy/CS6-fishlength.csv")

# look at the data
fishlength

## # A tibble: 68 × 3
##       id river   length
##    <dbl> <chr>    <dbl>
##  1     1 Guanapo   19.1
##  2     2 Guanapo   23.3
##  3     3 Guanapo   18.2
##  4     4 Guanapo   16.4
##  5     5 Guanapo   19.7
##  6     6 Guanapo   16.6
##  7     7 Guanapo   17.5
##  8     8 Guanapo   19.9
##  9     9 Guanapo   19.1
## 10    10 Guanapo   18.8
## # … with 58 more rows
…
